day,asize,ntrx
20090101,0,0
20090102,0,0
20090103,204.0,1
20090104,0,0
20090105,0,0
20090106,0,0
20090107,0,0
20090108,0,0
20090109,134.0,14
20090110,134.2295081967213,61
20090111,134.40860215053763,93
20090112,142.74257425742573,101
20090113,134.66666666666666,123
20090114,137.13076923076923,130
20090115,148.17164179104478,134
20090116,137.3272727272727,110
20090117,134.85321100917432,109
20090118,137.65740740740742,108
20090119,149.2991452991453,117
20090120,142.47826086956522,115
20090121,136.6504854368932,103
20090122,146.1413043478261,92
20090123,144.7906976744186,86
20090124,140.36138613861385,202
20090125,135.29166666666666,192
20090126,157.30927835051546,97
20090127,137.8877551020408,98
20090128,134.65178571428572,112
20090129,145.05737704918033,122
20090130,134.87179487179486,117
20090131,150.37410071942446,139
20090201,136.0,114
20090202,135.03875968992247,129
20090203,150.20645161290324,155
20090204,134.73949579831933,119
20090205,134.72222222222223,126
20090206,134.8360655737705,122
20090207,154.5187969924812,133
20090208,135.54887218045113,133
20090209,171.32592592592593,135
20090210,134.66666666666666,120
20090211,145.93333333333334,135
20090212,134.87394957983193,119
20090213,134.90322580645162,124
20090214,134.78676470588235,136
20090215,144.98473282442748,131
20090216,161.84552845528455,123
20090217,134.89743589743588,117
20090218,134.9406779661017,118
20090219,148.848,125
20090220,134.85245901639345,122
20090221,134.96491228070175,114
20090222,142.824,125
20090223,134.99074074074073,108
20090224,134.93396226415095,106
20090225,134.86666666666667,105
20090226,134.9626168224299,107
20090227,169.32758620689654,116
20090228,142.09,100
20090301,134.95238095238096,105
20090302,134.96296296296296,108
20090303,141.7289719626168,107
20090304,160.62264150943398,106
20090305,142.141592920354,113
20090306,134.92307692307693,117
20090307,134.9724770642202,109
20090308,158.45762711864407,118
20090309,134.71296296296296,108
20090310,134.97196261682242,107
20090311,134.8859649122807,114
20090312,137.36974789915968,119
20090313,147.08771929824562,114
20090314,134.79090909090908,110
20090315,134.96747967479675,123
20090316,179.0327868852459,122
20090317,134.96491228070175,114
20090318,147.1293103448276,116
20090319,134.78688524590163,122
20090320,145.6218487394958,119
20090321,134.88,50
20090322,143.71074380165288,121
20090323,134.92307692307693,130
20090324,134.98095238095237,105
20090325,134.7863247863248,117
20090326,161.22881355932202,118
20090327,134.95283018867926,106
20090328,151.41803278688525,122
20090329,134.9655172413793,116
20090330,134.85,120
20090331,167.0,111
20090401,134.859649122807,114
20090402,134.88695652173914,115
20090403,134.94827586206895,116
20090404,134.7433628318584,113
20090405,148.27272727272728,132
20090406,134.9816513761468,109
20090407,134.99,100
20090408,135.0,105
20090409,134.73737373737373,99
20090410,134.94444444444446,108
20090411,141.15702479338842,121
20090412,141.31666666666666,120
20090413,135.7844827586207,116
20090414,134.9516129032258,124
20090415,134.7433628318584,113
20090416,134.89430894308944,123
20090417,134.85714285714286,112
20090418,136.7,130
20090419,141.80833333333334,120
20090420,241.96694214876032,121
20090421,135.63709677419354,124
20090422,134.96694214876032,121
20090423,134.68,75
20090424,134.90434782608696,115
20090425,134.864406779661,118
20090426,148.40350877192984,114
20090427,134.89423076923077,104
20090428,134.63247863247864,117
20090429,151.90697674418604,129
20090430,134.95419847328245,131
20090501,134.87603305785123,121
20090502,148.0234375,128
20090503,138.7981651376147,109
20090504,160.67441860465115,129
20090505,142.61029411764707,136
20090506,134.9777777777778,135
20090507,135.0,122
20090508,134.94392523364485,107
20090509,134.48717948717947,78
20090510,134.75294117647059,85
20090511,136.71900826446281,121
20090512,134.92307692307693,130
20090513,138.5344827586207,116
20090514,137.1267605633803,142
20090515,142.55474452554745,137
20090516,134.94957983193277,119
20090517,134.96062992125985,127
20090518,134.92372881355934,118
20090519,134.88372093023256,86
20090520,134.73333333333332,120
20090521,134.96341463414635,82
20090522,134.9672131147541,61
20090523,134.9375,32
20090524,134.9,100
20090525,134.954128440367,109
20090526,134.904,125
20090527,134.7310924369748,119
20090528,134.8842105263158,95
20090529,197.97196261682242,107
20090530,134.71559633027522,109
20090531,135.0,96
20090601,136.90277777777777,72
20090602,134.9099099099099,111
20090603,135.0,71
20090604,134.93939393939394,66
20090605,134.9,30
20090606,134.28571428571428,28
20090607,134.9375,16
20090608,134.76829268292684,82
20090609,134.8021978021978,91
20090610,134.9268292682927,82
20090611,134.96629213483146,89
20090612,134.86046511627907,86
20090613,134.44871794871796,78
20090614,134.69444444444446,72
20090615,134.95238095238096,84
20090616,134.73239436619718,71
20090617,134.64556962025316,79
20090618,134.8125,80
20090619,134.67816091954023,87
20090620,134.76923076923077,78
20090621,134.76543209876544,81
20090622,222.45454545454547,77
20090623,134.56578947368422,76
20090624,137.68041237113403,97
20090625,166.30434782608697,69
20090626,134.6,90
20090627,134.83333333333334,84
20090628,136.7659574468085,47
20090629,136.08333333333334,84
20090630,138.41860465116278,86
20090701,136.58666666666667,75
20090702,135.97619047619048,84
20090703,134.97560975609755,82
20090704,134.87640449438203,89
20090705,134.9873417721519,79
20090706,134.97619047619048,84
20090707,134.94202898550725,69
20090708,134.98648648648648,74
20090709,134.72093023255815,86
20090710,134.8641975308642,81
20090711,138.12790697674419,86
20090712,134.7922077922078,77
20090713,134.9102564102564,78
20090714,134.95652173913044,69
20090715,134.9777777777778,45
20090716,134.85915492957747,71
20090717,134.80851063829786,47
20090718,134.0,4
20090719,134.8,70
20090720,329.0,71
20090721,134.85365853658536,82
20090722,134.4,60
20090723,134.68421052631578,76
20090724,134.93150684931507,73
20090725,134.84375,32
20090726,134.52380952380952,21
20090727,134.90540540540542,74
20090728,134.70731707317074,41
20090729,141.5,20
20090730,140.8125,16
20090731,134.7058823529412,17
20090801,134.82142857142858,28
20090802,134.6086956521739,23
20090803,134.83333333333334,12
20090804,134.62962962962962,81
20090805,134.72413793103448,87
20090806,134.92222222222222,90
20090807,290.8888888888889,81
20090808,134.875,80
20090809,135.0,101
20090810,134.98666666666668,75
20090811,134.9142857142857,70
20090812,134.52380952380952,63
20090813,134.76470588235293,85
20090814,134.82539682539684,63
20090815,134.3846153846154,26
20090816,134.52631578947367,19
20090817,134.8235294117647,17
20090818,135.0,10
20090819,134.38888888888889,18
20090820,134.1818181818182,22
20090821,134.0,14
20090822,134.0,7
20090823,134.53333333333333,15
20090824,134.0,15
20090825,134.66,50
20090826,239.84313725490196,51
20090827,134.3448275862069,29
20090828,134.73333333333332,75
20090829,134.80769230769232,78
20090830,134.98979591836735,98
20090831,141.70114942528735,87
20090901,134.7948717948718,78
20090902,134.84848484848484,66
20090903,159.29032258064515,62
20090904,134.671875,64
20090905,134.8421052631579,76
20090906,134.85294117647058,68
20090907,152.48101265822785,79
20090908,134.768115942029,69
20090909,134.7962962962963,54
20090910,134.80597014925374,67
20090911,134.82089552238807,67
20090912,134.8840579710145,69
20090913,134.84,75
20090914,134.85135135135135,74
20090915,134.86363636363637,44
20090916,135.986301369863,73
20090917,270.01176470588234,85
20090918,134.80769230769232,78
20090919,134.95945945945945,74
20090920,134.98717948717947,78
20090921,146.62857142857143,70
20090922,306.5769230769231,26
20090923,134.72222222222223,36
20090924,134.50515463917526,97
20090925,164.69892473118279,93
20090926,134.46,100
20090927,154.60227272727272,88
20090928,134.9294117647059,85
20090929,187.35555555555555,90
20090930,134.76470588235293,85
20091001,134.890243902439,82
20091002,149.15068493150685,73
20091003,134.41379310344828,58
20091004,134.67924528301887,53
20091005,134.76363636363635,55
20091006,170.2,45
20091007,134.71666666666667,60
20091008,134.47142857142856,70
20091009,134.65822784810126,79
20091010,134.8181818181818,77
20091011,134.75675675675674,74
20091012,278.5762711864407,59
20091013,134.80701754385964,57
20091014,134.6231884057971,69
20091015,134.3661971830986,71
20091016,286.73770491803276,61
20091017,134.8421052631579,57
20091018,144.05333333333334,75
20091019,134.44642857142858,112
20091020,254.32291666666666,96
20091021,158.679012345679,81
20091022,185.06593406593407,91
20091023,134.42696629213484,89
20091024,146.82539682539684,63
20091025,134.57894736842104,76
20091026,134.80281690140845,71
20091027,162.24615384615385,65
20091028,134.6818181818182,66
20091029,228.45833333333334,48
20091030,134.46666666666667,60
20091031,134.30434782608697,46
20091101,134.28,25
20091102,134.3939393939394,33
20091103,134.53225806451613,62
20091104,209.78125,64
20091105,134.47368421052633,57
20091106,134.5483870967742,62
20091107,134.66666666666666,69
20091108,134.54794520547946,73
20091109,134.6875,64
20091110,134.3846153846154,78
20091111,219.57534246575344,73
20091112,134.42424242424244,66
20091113,151.75903614457832,83
20091114,134.63291139240508,79
20091115,134.625,96
20091116,134.68041237113403,97
20091117,134.66304347826087,92
20091118,134.43037974683546,79
20091119,286.02777777777777,72
20091120,134.61627906976744,86
20091121,134.7123287671233,73
20091122,134.70754716981133,106
20091123,134.85416666666666,96
20091124,134.56989247311827,93
20091125,134.64444444444445,90
20091126,134.51190476190476,84
20091127,134.47297297297297,74
20091128,134.56338028169014,71
20091129,134.68333333333334,60
20091130,134.76,75
20091201,397.3378378378378,74
20091202,134.64893617021278,94
20091203,134.7840909090909,88
20091204,134.44444444444446,36
20091205,165.43076923076924,65
20091206,136.7047619047619,105
20091207,134.64285714285714,112
20091208,165.06542056074767,107
20091209,160.47706422018348,109
20091210,134.64423076923077,104
20091211,134.34821428571428,112
20091212,201.77678571428572,112
20091213,134.75438596491227,114
20091214,486.61682242990656,107
20091215,143.33928571428572,112
20091216,148.12408759124088,137
20091217,141.45348837209303,172
20091218,134.54222222222222,225
20091219,135.03517587939697,199
20091220,134.9142857142857,175
20091221,134.8068181818182,176
20091222,134.72222222222223,162
20091223,134.67532467532467,154
20091224,134.6883116883117,154
20091225,135.39333333333335,150
20091226,134.7183908045977,174
20091227,137.9702380952381,168
20091228,134.75182481751824,137
20091229,134.64912280701753,171
20091230,134.68794326241135,141
20091231,134.69565217391303,138
20100101,134.91044776119404,134
20100102,134.62698412698413,126
20100103,134.76344086021504,186
20100104,185.98907103825135,183
20100105,134.63131313131314,198
20100106,134.74233128834356,163
20100107,134.63636363636363,154
20100108,134.75816993464053,153
20100109,134.82781456953643,151
20100110,134.8,190
20100111,134.69811320754718,159
20100112,287.3975155279503,161
20100113,135.84939759036143,166
20100114,141.59310344827585,145
20100115,137.92253521126761,142
20100116,140.15873015873015,126
20100117,134.5648854961832,131
20100118,135.24603174603175,126
20100119,134.38709677419354,124
20100120,134.4493670886076,158
20100121,146.69021739130434,184
20100122,137.30882352941177,136
20100123,135.76543209876544,162
20100124,134.8258064516129,155
20100125,167.08837209302325,215
20100126,144.6766169154229,201
20100127,147.25903614457832,166
20100128,146.9050279329609,179
20100129,143.83582089552237,201
20100130,151.52336448598132,214
20100131,146.2694610778443,167
20100201,145.78756476683938,193
20100202,150.13698630136986,146
20100203,136.4264705882353,272
20100204,153.54700854700855,234
20100205,257.1189427312775,227
20100206,145.56796116504853,206
20100207,138.7117117117117,222
20100208,201.72115384615384,208
20100209,360.6095238095238,210
20100210,531.7745664739884,173
20100211,180.43103448275863,174
20100212,170.31914893617022,188
20100213,175.46382978723403,235
20100214,163.1826484018265,219
20100215,188.17837837837837,185
20100216,142.15422885572139,201
20100217,146.288,250
20100218,162.91627906976746,215
20100219,137.0871794871795,195
20100220,141.02857142857144,210
20100221,196.70044052863437,227
20100222,248.30188679245282,265
20100223,134.79681274900398,251
20100224,200.98305084745763,177
20100225,235.7594936708861,158
20100226,146.7556818181818,176
20100227,140.01142857142858,175
20100228,209.37735849056602,159
20100301,151.25628140703517,199
20100302,156.23316062176167,193
20100303,220.3227848101266,158
20100304,368.1063829787234,188
20100305,135.92528735632183,174
20100306,191.14754098360655,183
20100307,205.11475409836066,183
20100308,291.05384615384617,130
20100309,195.75675675675674,148
20100310,161.5976331360947,169
20100311,186.25735294117646,136
20100312,139.5609756097561,123
20100313,160.66883116883116,154
20100314,143.73228346456693,127
20100315,138.43571428571428,140
20100316,155.29457364341084,129
20100317,153.77697841726618,139
20100318,192.98657718120805,149
20100319,219.37037037037038,162
20100320,173.94117647058823,204
20100321,137.1263157894737,190
20100322,156.27956989247312,186
20100323,170.53181818181818,220
20100324,152.5164835164835,182
20100325,323.7475247524753,202
20100326,169.53521126760563,213
20100327,148.20652173913044,184
20100328,144.24479166666666,192
20100329,167.256038647343,207
20100330,138.1447963800905,221
20100331,146.65420560747663,214
20100401,146.88268156424581,179
20100402,146.0496894409938,161
20100403,150.69277108433735,166
20100404,172.62841530054644,183
20100405,221.0110497237569,181
20100406,196.89142857142858,175
20100407,190.91666666666666,204
20100408,169.54358974358973,195
20100409,227.49107142857142,224
20100410,235.48322147651007,298
20100411,203.87169811320754,265
20100412,205.76113360323887,247
20100413,148.5645933014354,209
20100414,186.3542600896861,223
20100415,404.7068965517241,290
20100416,236.7905982905983,234
20100417,170.872,250
20100418,258.71560728140855,3351
20100419,255.43478260869566,276
20100420,232.20164609053498,243
20100421,197.3386454183267,251
20100422,159.18090452261308,199
20100423,170.05,200
20100424,229.13861386138615,202
20100425,224.1219512195122,205
20100426,186.33175355450237,211
20100427,171.21888412017168,233
20100428,195.94273127753303,227
20100429,162.81666666666666,180
20100430,163.71176470588236,170
20100501,165.23809523809524,210
20100502,152.62222222222223,180
20100503,198.17021276595744,188
20100504,265.3672316384181,177
20100505,265.74691358024694,162
20100506,308.0169491525424,177
20100507,194.91139240506328,158
20100508,299.510989010989,182
20100509,205.87431693989072,183
20100510,236.98726114649682,157
20100511,161.93076923076924,130
20100512,227.9433962264151,159
20100513,201.61676646706587,167
20100514,1184.516339869281,153
20100515,1719.1504424778761,113
20100516,163.89473684210526,133
20100517,214.2191011235955,178
20100518,193.68161434977577,223
20100519,205.33816425120773,207
20100520,165.75527426160338,237
20100521,219.37021276595743,235
20100522,300.57522123893807,226
20100523,198.9190938511327,309
20100524,173.348,250
20100525,179.03937007874015,254
20100526,199.01742160278746,287
20100527,202.36704119850188,267
20100528,173.30685920577616,277
20100529,206.13807531380752,239
20100530,171.09,200
20100531,176.25257731958763,194
20100601,192.30054644808743,183
20100602,166.1701030927835,194
20100603,239.20425531914893,235
20100604,162.72254335260115,173
20100605,177.73157894736843,190
20100606,189.885,200
20100607,286.9665071770335,209
20100608,186.66367713004485,223
20100609,218.4909090909091,220
20100610,169.27649769585253,217
20100611,195.87854251012146,247
20100612,183.50234741784038,213
20100613,195.1715481171548,239
20100614,233.31906614785993,257
20100615,189.8810408921933,269
20100616,242.359375,192
20100617,172.1813725490196,204
20100618,196.2901554404145,193
20100619,280.32710280373834,214
20100620,175.50877192982455,228
20100621,199.3595041322314,242
20100622,211.33039647577093,227
20100623,197.1673151750973,257
20100624,198.23333333333332,240
20100625,167.34761904761905,210
20100626,162.38308457711443,201
20100627,176.0982905982906,234
20100628,177.53478260869565,230
20100629,230.2348484848485,264
20100630,750.7875457875458,273
20100701,204.9894366197183,284
20100702,414.8008298755187,241
20100703,193.30769230769232,286
20100704,291.16517857142856,224
20100705,200.29761904761904,252
20100706,175.33173076923077,208
20100707,243.8440366972477,218
20100708,179.12107623318386,223
20100709,170.32462686567163,268
20100710,214.6125,240
20100711,214.3597733711048,353
20100712,238.22695652173914,2300
20100713,205.57606490872212,1479
20100714,260.7253750815395,6132
20100715,371.2548872180451,1330
20100716,226.9796782387807,1181
20100717,275.4656862745098,408
20100718,313.40238095238095,420
20100719,249.14962121212122,528
20100720,300.05387205387206,594
20100721,242.53563714902808,463
20100722,218.07304785894206,397
20100723,211.06812652068126,411
20100724,305.60290827740494,894
20100725,398.4728469555677,1823
20100726,477.8715203426124,467
20100727,264.6924882629108,426
20100728,272.497180932855,1951
20100729,228.52437064809857,1867
20100730,301.4307692307692,325
20100731,268.1694915254237,295
20100801,230.48626373626374,364
20100802,216.69849246231155,398
20100803,260.5941358024691,648
20100804,225.86560364464694,439
20100805,358.4970873786408,515
20100806,276.8523676880223,359
20100807,317.9340659340659,273
20100808,228.10997442455243,391
20100809,664.625,424
20100810,221.7941176470588,340
20100811,235.17961165048544,412
20100812,209.69642857142858,392
20100813,315.1434108527132,516
20100814,266.2442396313364,434
20100815,212.2253968253968,315
20100816,314.4039735099338,453
20100817,241.1761006289308,318
20100818,678.9363395225464,377
20100819,225.40923076923076,325
20100820,234.90070921985816,423
20100821,231.8918128654971,342
20100822,226.80327868852459,366
20100823,234.99728997289972,369
20100824,428.3693931398417,379
20100825,197.92602739726027,365
20100826,274.79619565217394,368
20100827,229.15986394557822,294
20100828,264.0088495575221,339
20100829,207.2923076923077,260
20100830,267.4224924012158,329
20100831,373.7845804988662,441
20100901,336.1421052631579,380
20100902,256.09968847352025,321
20100903,219.09717868338558,319
20100904,216.94525547445255,274
20100905,246.77813504823152,311
20100906,241.47841726618705,278
20100907,219.45035460992906,282
20100908,233.5339233038348,339
20100909,264.0524691358025,324
20100910,236.1,360
20100911,222.7934426229508,305
20100912,289.28232189973613,379
20100913,272.908256880734,436
20100914,247.67924528301887,424
20100915,269.8767441860465,430
20100916,235.2876712328767,438
20100917,371.94459833795014,361
20100918,220.72932330827066,399
20100919,252.38028169014083,355
20100920,266.90752688172046,465
20100921,313.09753086419755,810
20100922,300.63001485884104,673
20100923,268.8793893129771,655
20100924,242.19760479041915,501
20100925,270.9116541353383,532
20100926,258.6325,400
20100927,332.93200663349916,603
20100928,492.6537678207739,491
20100929,356.44410256410254,975
20100930,268.78356164383564,365
20101001,270.05479452054794,584
20101002,346.47704590818364,501
20101003,277.48010610079575,377
20101004,312.61670761670763,407
20101005,312.47708894878707,371
20101006,264.55528255528253,407
20101007,276.4764705882353,340
20101008,332.35537190082647,363
20101009,324.6384039900249,401
20101010,269.4986225895317,363
20101011,267.5964912280702,342
20101012,272.01704545454544,352
20101013,381.35164835164835,364
20101014,272.4850136239782,367
20101015,243.2378048780488,328
20101016,285.48526077097506,441
20101017,240.164113785558,457
20101018,281.1174438687392,579
20101019,300.20021645021643,924
20101020,291.6437587657784,713
20101021,300.19565217391306,552
20101022,302.24418604651163,602
20101023,278.08317214700196,517
20101024,262.6268115942029,552
20101025,285.18536585365854,410
20101026,258.1332046332046,518
20101027,310.625,568
20101028,291.62757201646093,486
20101029,309.82655246252676,467
20101030,233.53286384976525,426
20101031,268.28338762214986,307
20101101,252.27350427350427,351
20101102,226.67132867132867,286
20101103,241.1671469740634,347
20101104,254.31578947368422,342
20101105,309.49321266968326,442
20101106,247.6802030456853,394
20101107,238.96674057649668,451
20101108,407.7242718446602,515
20101109,246.9877750611247,409
20101110,239.31738035264485,397
20101111,238.0481012658228,395
20101112,228.5874125874126,286
20101113,237.11078717201167,343
20101114,294.9736211031175,417
20101115,357.493839835729,4870
20101116,235.24470071389345,9105
20101117,240.75402298850574,435
20101118,222.6599732262383,1494
20101119,225.812188538206,9632
20101120,226.13832083033603,9731
20101121,227.9488251692553,10044
20101122,259.85131195335276,343
20101123,276.09384164222877,341
20101124,243.7294207317073,3936
20101125,342.77543648404577,4983
20101126,270.58599695585997,1314
20101127,268.70112359550563,445
20101128,240.284140969163,454
20101129,281.27753303964755,454
20101130,251.23568281938327,454
20101201,289.51953125,512
20101202,251.58478260869566,460
20101203,297.578125,384
20101204,273.1291866028708,418
20101205,224.7626728110599,434
20101206,218.7010752688172,465
20101207,280.31588132635255,573
20101208,246.8546845124283,523
20101209,261.50411522633743,486
20101210,245.656836461126,373
20101211,280.59636363636366,550
20101212,258.77604976671853,643
20101213,365.0743034055728,646
20101214,249.6937212863706,653
20101215,255.79439252336448,642
20101216,262.045197740113,531
20101217,325.24891774891773,462
20101218,255.12224448897797,499
20101219,318.08892921960074,551
20101220,274.2886266094421,932
20101221,264.1764705882353,629
20101222,274.58484848484846,660
20101223,289.8940269749518,519
20101224,256.3898305084746,531
20101225,242.5347003154574,634
20101226,264.4417808219178,584
20101227,323.3745247148289,526
20101228,264.13615733736765,661
20101229,289.32943469785573,513
20101230,276.9595278246206,593
20101231,254.02882882882884,555
20110101,282.6009104704097,659
20110102,289.9297012302285,569
20110103,332.1072695035461,1128
20110104,244.44637385086824,979
20110105,279.37709923664124,1310
20110106,296.7939481268011,694
20110107,256.5676470588235,1020
20110108,260.183147632312,1436
20110109,274.982829108749,1223
20110110,272.5510670731707,1312
20110111,280.9743024963289,1362
20110112,264.3364888123924,1162
20110113,287.8981042654028,1266
20110114,281.99762282091916,1262
20110115,299.6018711018711,962
20110116,300.69924812030075,931
20110117,273.56024096385545,830
20110118,304.39853300733495,818
20110119,297.33260632497274,917
20110120,269.8787878787879,924
20110121,314.1355060034305,1166
20110122,356.1736990154712,1422
20110123,335.7641073080481,1081
20110124,318.0242608036391,1319
20110125,276.24971878515186,889
20110126,287.62587064676615,1005
20110127,339.8727705112961,841
20110128,294.48566142460686,1081
20110129,350.365998515219,1347
20110130,381.99691358024694,2592
20110131,360.69921033740127,1393
20110201,404.70088845014806,1013
20110202,319.64174107142856,896
20110203,292.44993662864385,789
20110204,293.7012578616352,954
20110205,319.13461538461536,832
20110206,326.1879120879121,910
20110207,282.27017937219733,892
20110208,294.60047281323875,846
20110209,291.241238793806,1227
20110210,328.97984267453296,2034
20110211,297.18343949044583,2355
20110212,305.23797071129707,1912
20110213,289.40559824368825,1822
20110214,360.38833499501493,2006
20110215,291.5355215827338,2224
20110216,278.688995215311,2090
20110217,291.5142222222222,2250
20110218,332.79134241245134,2056
20110219,305.99368288060646,1583
20110220,285.395048994327,1939
20110221,275.7583756345178,1970
20110222,301.01775956284155,2196
20110223,298.3843432109686,2261
20110224,306.0701754385965,2109
20110225,297.4490291262136,2060
20110226,304.468237704918,1952
20110227,307.8193036579991,2269
20110228,320.1029069767442,1720
20110301,318.8677171124954,2729
20110302,313.2523643603783,2009
20110303,288.56616729088637,3204
20110304,340.7093844601413,1982
20110305,399.81103515625,2048
20110306,306.8552437223043,2031
20110307,321.5934579439252,1926
20110308,335.9049180327869,2440
20110309,338.1008724100327,1834
20110310,321.3612281757977,1661
20110311,326.95010615711254,1884
20110312,286.0040595399188,2956
20110313,289.79675396532645,2711
20110314,318.67158531971245,2643
20110315,320.37140854940435,2854
20110316,294.37543198240655,3183
20110317,276.97831897831895,3367
20110318,310.1493040911008,2371
20110319,288.6447162119787,3189
20110320,340.98110893032384,4076
20110321,269.5375811411001,5854
20110322,316.236818588025,2238
20110323,313.4706783369803,4570
20110324,358.20748613678376,2164
20110325,366.88388388388387,1998
20110326,334.0099218280217,3326
20110327,382.07517269402683,2461
20110328,360.67964480874315,2928
20110329,334.3018798378179,2713
20110330,359.122437357631,1756
20110331,370.01623686723974,2094
20110401,382.478784040532,1579
20110402,352.01186440677964,1770
20110403,335.0570637119114,1805
20110404,348.4472885032538,2305
20110405,347.1130023640662,2115
20110406,348.6243272335845,1858
20110407,349.11011370436864,1671
20110408,376.4707884288145,1763
20110409,347.17235396182764,1729
20110410,370.704192992533,1741
20110411,387.9335051546392,1940
20110412,429.77279305354557,2073
20110413,386.71452702702703,2368
20110414,343.96906499826207,2877
20110415,471.3399503722084,2015
20110416,485.14425314099583,2149
20110417,358.05456965394853,2254
20110418,353.5420653249753,3031
20110419,347.21412680756396,3596
20110420,434.61180438448565,2965
20110421,349.4397905759162,1910
20110422,362.32329029172644,2091
20110423,399.80442324371205,2306
20110424,405.03083700440527,2270
20110425,434.66074188562595,2588
20110426,359.71399594320485,3451
20110427,421.6070804195804,4576
20110428,402.5563612392881,3034
20110429,377.50565930956424,3534
20110430,402.05030181086516,4473
20110501,422.03114712585466,3949
20110502,363.9508885298869,3095
20110503,403.172402044293,2935
20110504,414.33785714285716,2800
20110505,415.729792147806,3464
20110506,402.0328267477204,3290
20110507,347.57010547980445,3887
20110508,400.0238095238095,2898
20110509,413.81650071123755,3515
20110510,459.1472548397334,3151
20110511,435.43592233009707,3090
20110512,419.645046117227,3361
20110513,474.95569776027565,4063
20110514,416.9836882646126,4414
20110515,447.98859416445623,3770
20110516,451.02069441250865,4349
20110517,422.13597670250897,4464
20110518,418.4535842293907,5580
20110519,421.18335835299166,4663
20110520,429.95368245357815,4793
20110521,395.67063092118525,4961
20110522,385.76422610015175,5272
20110523,403.3013770263204,5737
20110524,387.07136759433155,5857
20110525,415.8185309649544,6249
20110526,406.0923076923077,6955
20110527,386.589352042922,4846
20110528,392.29227390696747,5009
20110529,402.288,4750
20110530,411.8228014250891,5333
20110531,422.4801187922785,6061
20110601,416.7693484245947,6538
20110602,427.0262125035043,7134
20110603,478.15657224131803,8437
20110604,423.98274491996824,8809
20110605,379.9754422718808,8592
20110606,437.6647756575554,9695
20110607,397.04701044676597,8998
20110608,478.78314273612875,11805
20110609,427.80897952471014,12161
20110610,416.93557273615926,11253
20110611,403.22178345118925,10889
20110612,423.97217978612207,12437
20110613,436.82838078291815,11240
20110614,393.0543501307513,14149
20110615,428.254166005396,12602
20110616,424.96656200941914,12740
20110617,434.1543095048277,11289
20110618,412.5663349199481,11555
20110619,428.49956408020927,11470
20110620,384.0352018536672,11221
20110621,411.12159653465346,9696
20110622,376.4220581849761,11515
20110623,386.6146903504561,10415
20110624,392.4327838827839,10920
20110625,412.32397853900125,9692
20110626,429.28602904356535,9985
20110627,465.1723697650664,11748
20110628,416.6965169483612,10709
20110629,413.2208220822082,9999
20110630,417.7358862598589,9636
20110701,430.84710431993966,10602
20110702,459.9841586628415,8017
20110703,407.11438143096433,8358
20110704,420.66506977712976,9602
20110705,446.61209686418925,8961
20110706,449.0806620374774,10513
20110707,414.9484412470024,9174
20110708,422.3607461285781,8524
20110709,431.6402089438145,7849
20110710,466.6862184072485,8388
20110711,405.1273176761434,10517
20110712,426.67792239685656,8144
20110713,410.2053095419432,9191
20110714,433.8524383247275,8715
20110715,409.83093480165184,7991
20110716,414.7093901476722,8871
20110717,435.7034515705243,8373
20110718,509.9232311977716,8975
20110719,451.1438065148709,9179
20110720,434.4403431538548,8859
20110721,450.9123774509804,8160
20110722,424.02569521690765,8990
20110723,440.6654074473826,7412
20110724,436.03408814219625,8214
20110725,455.6466680725432,9484
20110726,451.1562649450024,8364
20110727,452.68101614316106,7991
20110728,457.19738787580087,8116
20110729,418.36072747162586,7313
20110730,416.55363768349736,6199
20110731,424.0379293303682,8094
20110801,452.8107679160054,8191
20110802,437.29333030852996,8816
20110803,447.8106570098293,7732
20110804,419.2009154420621,8302
20110805,422.4142430008154,7358
20110806,463.8735362997658,6832
20110807,419.1420691711389,6708
20110808,507.5527257709251,7264
20110809,444.1981326674628,9211
20110810,417.3831932773109,8330
20110811,405.8370438677381,7591
20110812,405.9603351955307,7160
20110813,422.6430020283976,7395
20110814,458.29914301017675,7468
20110815,456.45378552663004,8374
20110816,419.11411068424877,9631
20110817,449.40547199170123,7712
20110818,424.5286890778993,7407
20110819,464.14396529056006,7606
20110820,431.8710665552771,7182
20110821,421.48132671715854,7658
20110822,448.47912397540983,7808
20110823,438.24604593590976,7271
20110824,427.51773338768857,7359
20110825,436.7092717977062,7237
20110826,452.9333603129637,7413
20110827,477.08624488511174,6354
20110828,438.61378692927485,5585
20110829,422.2996662133762,8089
20110830,405.17542959733265,7798
20110831,403.6271279516749,7284
20110901,424.6368816008894,7196
20110902,406.2772319521572,7023
20110903,416.6058098294207,5921
20110904,740.2775020678247,7254
20110905,437.3188282138794,7032
20110906,444.8618925831202,7820
20110907,425.55809685161654,7083
20110908,433.73417526567073,6493
20110909,529.5609987786673,7369
20110910,481.6040100250627,5985
20110911,453.5571428571429,6440
20110912,468.4576735688185,6568
20110913,411.92954719877207,6515
20110914,422.1194704552793,6194
20110915,437.5040977269213,6467
20110916,422.8041901692184,6205
20110917,418.01119882504133,5447
20110918,412.9720875814809,5983
20110919,461.95622085151194,6647
20110920,481.1458410124094,8139
20110921,485.64727320057267,7683
20110922,431.7118865155715,6133
20110923,420.7675521821632,6324
20110924,466.6875109170306,5725
20110925,454.52614093372966,5719
20110926,426.1629392971246,5634
20110927,431.5696949819613,6098
20110928,409.453034081463,6015
20110929,400.2710012538062,5583
20110930,410.23780279768,5862
20111001,428.2568875651526,5372
20111002,413.61846031430275,5027
20111003,398.38422587079947,6517
20111004,435.14084022038566,5808
20111005,420.8268863833478,5765
20111006,437.3405551794177,5908
20111007,431.70388007054675,5670
20111008,419.96978683966637,5395
20111009,421.46489459211733,5455
20111010,408.46300391222996,5879
20111011,452.9726489954415,5923
20111012,430.6842724978974,5945
20111013,425.58201164424815,4981
20111014,428.5765765765766,6105
20111015,413.85280919045056,5571
20111016,428.548873692679,4972
20111017,462.1126711735136,5769
20111018,434.7084878450762,4854
20111019,426.49550956657555,5122
20111020,398.34597973701227,4639
20111021,374.5963461538461,5200
20111022,420.63488645262333,5108
20111023,401.65845384752726,5601
20111024,410.8926763415457,5926
20111025,413.57811002491854,5217
20111026,418.0892518040258,5266
20111027,409.64597602739724,4672
20111028,437.21314039890495,5114
20111029,434.82436057950275,5591
20111030,409.6470824949698,4970
20111031,398.4191616766467,5177
20111101,398.4326339517947,5767
20111102,389.6217209690894,5985
20111103,386.1627981431087,6247
20111104,422.41567187021735,6534
20111105,419.9797399966233,5923
20111106,377.8800954464108,5029
20111107,431.7187898669583,5487
20111108,445.54360173738723,5986
20111109,421.55215771499536,6442
20111110,425.23859810223445,6534
20111111,440.1694515431492,5087
20111112,425.9515814135103,5122
20111113,393.00969064480057,5366
20111114,442.807047264103,5903
20111115,440.469585177898,6099
20111116,430.55244870946393,6044
20111117,451.1933333333333,4950
20111118,424.82978311386523,5164
20111119,432.68235793044954,4716
20111120,468.8042203985932,5118
20111121,405.69752308984044,4764
20111122,427.51284855112084,5487
20111123,403.00321888412014,5592
20111124,450.6449101796407,5010
20111125,412.84242203173443,5483
20111126,435.1807457341479,4747
20111127,405.3574535389482,5058
20111128,428.75485395914234,5923
20111129,465.7058181250975,6411
20111130,479.77719375091255,6849
20111201,462.8502758077226,6345
20111202,425.8933206710984,6318
20111203,439.2919837196956,5651
20111204,421.3669657571873,5461
20111205,416.8358982666451,6173
20111206,422.4120545868082,7914
20111207,433.3051174766656,6214
20111208,472.1500954364046,5763
20111209,419.556013622513,5579
20111210,424.20741131015103,5694
20111211,493.0142884000752,5319
20111212,498.3724007561437,4761
20111213,451.66255976461935,5438
20111214,418.67804705466125,5653
20111215,396.3860811930406,4828
20111216,447.0024710131154,5261
20111217,433.6659242761693,4939
20111218,417.5072058507206,4649
20111219,468.39016736401675,5736
20111220,529.9424083769634,6303
20111221,435.6349742313844,5627
20111222,438.91376336667815,5798
20111223,406.0528368794326,5640
20111224,412.478372043469,4693
20111225,421.31603141160696,5221
20111226,427.1926315789474,5700
20111227,446.47784200385354,5190
20111228,440.2795166402536,5048
20111229,444.1349621873182,5157
20111230,413.4378314672952,5091
20111231,475.7573443008226,5106
20120101,518.7583233052547,4986
20120102,536.4667039731394,5361
20120103,495.63960982407247,5741
20120104,498.6536811395229,5827
20120105,518.377607184241,6904
20120106,555.1371634832306,6649
20120107,515.4802221848174,5941
20120108,515.8327102803738,6420
20120109,545.2968905061198,6046
20120110,630.291038020519,6628
20120111,583.6522287636669,7134
20120112,463.6399048468629,6726
20120113,443.6071533706211,6794
20120114,432.0819768294471,6819
20120115,459.23998733576065,6317
20120116,489.42652123995407,6968
20120117,454.6738524710368,6819
20120118,476.104076590488,6476
20120119,459.31190544825597,6938
20120120,444.2218601895735,6752
20120121,468.2827077116381,6367
20120122,422.6821442053605,5298
20120123,420.799967527196,6159
20120124,461.36414022447,7217
20120125,462.810303863949,7997
20120126,455.73481414324567,6618
20120127,475.89582003828974,6268
20120128,465.54057702041507,5927
20120129,465.9000317863954,6292
20120130,436.82420054636026,6223
20120131,471.033198028414,6898
20120201,447.6868984787333,6442
20120202,479.62176093619394,7178
20120203,465.56253553155204,7036
20120204,451.3923024054983,7275
20120205,443.1504359391163,6767
20120206,448.923574270557,6032
20120207,428.5157925664757,6807
20120208,433.79419373383155,6958
20120209,447.51922309431956,7517
20120210,448.35092504743835,8432
20120211,449.0297325370034,7702
20120212,440.98514922176213,7003
20120213,464.4324861878453,9050
20120214,462.0157961246841,9496
20120215,434.5186130610508,9402
20120216,464.8939165950129,9304
20120217,420.09912837937657,6769
20120218,425.2593664331404,6566
20120219,434.3977119784657,5944
20120220,419.4495295806092,6271
20120221,460.44574873096445,6304
20120222,432.1603864734299,7245
20120223,467.5149320116914,7869
20120224,503.4672847682119,7550
20120225,570.5278503046127,6894
20120226,460.19669592152815,5811
20120227,444.5928581882043,6833
20120228,459.03236976814213,6642
20120229,452.44570575056014,6695
20120301,491.5623693379791,7175
20120302,497.0476578411405,7365
20120303,438.4095996964523,5271
20120304,448.43619344773794,6410
20120305,504.11958528618095,7041
20120306,500.56184189847556,6363
20120307,445.3349375845992,6649
20120308,466.83169216785336,6601
20120309,481.35219932328516,6502
20120310,571.6358824603029,5479
20120311,478.87071442252443,5221
20120312,479.7022851625362,6214
20120313,539.4180259883882,7234
20120314,517.5775986179096,6946
20120315,481.31930495775543,6273
20120316,443.25654600085846,6989
20120317,446.79221732745964,6810
20120318,432.79556731723454,6046
20120319,455.24277117275795,6813
20120320,442.84484830279365,6658
20120321,439.62429501084597,6915
20120322,460.13639811864664,6591
20120323,435.4188905062268,6183
20120324,428.03866019721397,6389
20120325,451.8096936294375,6169
20120326,480.6899016979446,6714
20120327,455.21789648408026,6627
20120328,459.386309772759,7173
20120329,442.9870469710847,7643
20120330,461.516765578635,6740
20120331,441.0988940535342,6239
20120401,469.6199855439104,5534
20120402,478.98086715013113,6481
20120403,463.94598054275474,7812
20120404,449.77455579246623,7035
20120405,498.9051858131977,7077
20120406,510.4782674313311,6626
20120407,450.8484651616047,6157
20120408,448.04876805437556,5885
20120409,445.88877134653166,6617
20120410,437.27210157826033,8427
20120411,476.37696072280085,7969
20120412,444.87274280136654,8196
20120413,458.55324074074076,7344
20120414,437.1328517993035,7753
20120415,433.9299096913331,7419
20120416,476.5665492957746,8520
20120417,497.29007537688443,7960
20120418,500.49498879849074,8481
20120419,467.851573448847,7849
20120420,522.4374848558275,8254
20120421,472.4554042789664,7198
20120422,465.7728267667292,6396
20120423,470.0325905292479,7180
20120424,453.7904662126768,7636
20120425,453.9387511600159,7543
20120426,418.27997637330185,10158
20120427,472.85120134888297,7117
20120428,444.788394532297,7462
20120429,436.5633051398829,7685
20120430,444.04753296469585,9404
20120501,468.05531453362255,10142
20120502,472.2369861650244,10047
20120503,435.0470505121865,14155
20120504,446.90664760543245,13990
20120505,437.2476570901828,13018
20120506,511.0488552370651,11094
20120507,443.7883637936628,18494
20120508,435.6569744374539,17643
20120509,461.3946998123827,17056
20120510,455.7293085897737,12771
20120511,446.5927589265913,18036
20120512,430.990189701897,18450
20120513,436.19057335237704,14703
20120514,438.08959915239274,28315
20120515,452.00476995793764,23061
20120516,476.2962618992338,17228
20120517,463.0856265501358,16934
20120518,447.3973539228697,24867
20120519,440.9710550096013,35412
20120520,435.2057534158907,31251
20120521,440.0774263211382,31488
20120522,441.5512825877725,23897
20120523,444.9155618102363,27002
20120524,442.64717261904764,26880
20120525,436.84684591875276,29121
20120526,432.3802459410967,22851
20120527,436.61978245323496,26569
20120528,443.98073403653547,30053
20120529,445.0310139965764,29793
20120530,451.5196909370442,25367
20120531,451.4029176962555,21044
20120601,446.9550057494714,26959
20120602,450.2148148148148,12960
20120603,435.7083321266182,34529
20120604,441.1107359891965,45911
20120605,423.25432349949136,43252
20120606,458.75589442096884,16329
20120607,437.17526051833386,33299
20120608,466.662674071618,24128
20120609,434.6542090430094,32644
20120610,418.19159232555296,40915
20120611,439.6729867916489,32858
20120612,484.53513144776196,19057
20120613,419.89066521941385,64490
20120614,463.2341835458865,55986
20120615,447.8406262472334,55122
20120616,449.6108668498626,40030
20120617,426.3667883625479,44099
20120618,447.38706843084555,38696
20120619,458.2392365020642,37302
20120620,473.0622385916724,32038
20120621,470.18209159782236,26267
20120622,474.1847504781777,23004
20120623,476.07323096264366,22272
20120624,453.695726037196,22368
20120625,447.4966564932615,29161
20120626,433.01426013132584,30154
20120627,438.22575905974537,30630
20120628,441.90561637136517,26583
20120629,415.6847039330252,22934
20120630,421.45048722675796,22782
20120701,417.7596790162055,19191
20120702,418.74838933683117,25921
20120703,423.0569131540698,22016
20120704,434.7483836917799,22737
20120705,454.1523151724451,22007
20120706,436.71785135081683,25281
20120707,412.16510486390007,24651
20120708,436.52114537444936,20430
20120709,438.33515236008765,25105
20120710,436.0894930850032,36081
20120711,442.0392759224391,30273
20120712,437.340786302053,24062
20120713,465.84279644650445,25890
20120714,436.73196404452517,21471
20120715,433.9487621259223,26699
20120716,450.8036716926377,31702
20120717,445.17675227318074,35083
20120718,464.2270558344178,32274
20120719,466.8089274245344,31140
20120720,445.93391700322553,36893
20120721,427.6017051326214,34836
20120722,407.42899948633067,35042
20120723,422.0437945003683,32584
20120724,433.7178498843647,28538
20120725,421.55998949855604,26663
20120726,434.93826152288244,30613
20120727,412.6086505702859,27004
20120728,406.21983146067413,35600
20120729,426.58348222004497,34702
20120730,457.80036527528205,33947
20120731,428.8291659793086,42433
20120801,436.41671828644087,30673
20120802,431.8781077562155,32258
20120803,426.9401802587585,27516
20120804,439.2912598074485,29187
20120805,406.86226339105923,34762
20120806,403.8618405763421,34424
20120807,394.6622617793933,29437
20120808,412.0526555502138,39521
20120809,433.43192381447653,30767
20120810,407.4657617649166,27922
20120811,392.8784474858849,33829
20120812,401.4912597114317,36040
20120813,422.56730993284896,47207
20120814,440.76675749318804,34865
20120815,450.42407509663167,54330
20120816,425.78976419676763,45292
20120817,425.77549296454515,41433
20120818,403.7762175415134,35892
20120819,490.3051645705111,37370
20120820,442.3157952851543,36226
20120821,403.6000655783779,42697
20120822,417.268732347566,36114
20120823,399.70873447081624,31473
20120824,399.99341250415495,33093
20120825,406.2007990834043,34039
20120826,411.77402703253415,29446
20120827,415.65064766073226,33814
20120828,422.65017834309174,29718
20120829,401.29800364008645,35164
20120830,407.40649265064036,34901
20120831,413.3615866802111,40361
20120901,416.2858796600805,38009
20120902,422.5402425908222,33472
20120903,424.80765195137553,39075
20120904,444.22083301373016,39111
20120905,434.7897523115987,41746
20120906,416.9053176762614,41898
20120907,422.2367190310589,33356
20120908,425.89404781004333,31165
20120909,411.28303859757034,32515
20120910,420.41806009935783,33012
20120911,427.7187033203176,38159
20120912,427.9671370017048,27569
20120913,447.0877181071356,29458
20120914,446.86328583403184,35790
20120915,430.6789067314315,27587
20120916,462.2385694399829,28017
20120917,436.5146446800157,25470
20120918,435.9482476959591,32443
20120919,426.85640783014964,33818
20120920,424.38137464974454,30335
20120921,454.6708794788274,30700
20120922,516.6492469519484,20915
20120923,457.88758715888576,28253
20120924,446.4274681111305,28615
20120925,407.61937676621096,26186
20120926,446.834377856117,30636
20120927,441.5370198486363,28012
20120928,445.6864869575321,34426
20120929,482.60847405043654,22563
20120930,486.77174231332356,20490
20121001,505.44767908769677,24904
20121002,460.8387077809459,34019
20121003,521.4540861244019,26125
20121004,471.3830409356725,32832
20121005,440.1525197431964,35202
20121006,466.5814713896458,33030
20121007,471.79419188256117,34469
20121008,452.24221390788284,38755
20121009,459.60172108182286,34978
20121010,452.1121120503486,32414
20121011,459.83531850735017,26530
20121012,464.2126672803229,28246
20121013,460.26742806288934,33710
20121014,472.6678459261399,27701
20121015,473.57454772301935,30457
20121016,474.23783110708627,35336
20121017,494.21281687923164,31755
20121018,506.8148358877707,28121
20121019,496.27970105328376,25824
20121020,481.97006554496926,29598
20121021,454.6665428521903,40383
20121022,438.9874831855179,43861
20121023,491.58360937308305,32604
20121024,473.12218521800236,32729
20121025,491.5462660741673,25429
20121026,500.5195258660296,21766
20121027,498.4224432511594,16388
20121028,484.0324037925265,17930
20121029,523.4258207207598,23059
20121030,456.31870980443625,30476
20121031,474.4617087882721,26194
20121101,468.6334708549487,24481
20121102,455.39253679046953,28540
20121103,457.95533642691413,24136
20121104,485.7112977670589,24049
20121105,509.5968200580951,32705
20121106,457.8076861693639,31329
20121107,436.4031852701743,36606
20121108,458.8488948344532,32891
20121109,468.614811479101,24427
20121110,474.6576227390181,27090
20121111,440.6546332782509,23601
20121112,463.5297543888233,24551
20121113,456.2745608566504,27269
20121114,438.6701065246338,30040
20121115,436.00277601522845,37824
20121116,456.7442637160922,39224
20121117,512.7834196244776,32062
20121118,449.1335420368334,35457
20121119,451.8075360886986,36438
20121120,449.08379106085084,37140
20121121,476.2230238231173,38534
20121122,466.8672327402562,33329
20121123,508.87586416214214,29653
20121124,461.55715984372347,29435
20121125,467.8700440528634,36774
20121126,476.77627346219475,35749
20121127,460.1547416843595,28260
20121128,461.5330805118271,36653
20121129,465.47304930841517,37884
20121130,451.15121640960405,31445
20121201,453.34914544820367,31537
20121202,474.0330690485749,19928
20121203,474.41350077069546,22058
20121204,483.19021655894875,32647
20121205,479.2946811928615,34237
20121206,480.83631976034616,36052
20121207,450.62152638249205,32351
20121208,436.252219114786,32896
20121209,464.14228576545383,33503
20121210,467.5697972434218,35116
20121211,461.8475110917344,38993
20121212,463.0777024174711,35533
20121213,466.22366092221705,42940
20121214,454.7698157894737,38000
20121215,447.38169803639096,31931
20121216,447.61735233535603,35926
20121217,440.37602040816324,41160
20121218,452.9316971383148,50320
20121219,430.0749396759738,43515
20121220,463.10842446557126,36394
20121221,429.9894677996422,44720
20121222,418.3668833069852,51237
20121223,443.9110020108114,38293
20121224,495.8888268976655,34055
20121225,440.0966924558262,29599
20121226,495.443792633015,36650
20121227,464.22016908483397,44593
20121228,457.33273203624964,46566
20121229,474.44211760317586,37533
20121230,416.37968631306137,44758
20121231,463.0479593509261,30505
20130101,451.8028716054885,31411
20130102,444.08502014161684,39967
20130103,413.92274261408295,43258
20130104,447.8742367986799,48480
20130105,426.43777193401866,41830
20130106,434.0816586609156,30603
20130107,439.65295923285726,39419
20130108,528.3922123347564,38882
20130109,436.57591171049256,42859
20130110,453.64174372523115,52990
20130111,427.1528335899651,53254
20130112,422.262297616681,45273
20130113,438.65873675251777,49349
20130114,446.73740209172814,44174
20130115,432.1645177698653,45217
20130116,438.6715922297858,54207
20130117,472.1638208261582,48199
20130118,448.7457859422306,48884
20130119,436.6214305959045,56452
20130120,441.78966565349543,41125
20130121,454.76697712951574,39833
20130122,476.85285779606767,43740
20130123,470.25138256171203,47195
20130124,509.5813178009224,46183
20130125,464.65740893018665,48644
20130126,448.64698152732814,52510
20130127,443.95334415525195,54827
20130128,475.58455931715736,52135
20130129,478.5517321016166,51960
20130130,473.4483108024615,40463
20130131,463.77057057057056,51615
20130201,446.91551040219593,59747
20130202,452.1865700253775,54773
20130203,446.2101965581657,60491
20130204,458.0877733903103,55461
20130205,447.47352273995017,53782
20130206,441.1197077253914,43247
20130207,445.6353374273102,61391
20130208,445.80283740150236,59773
20130209,444.91423535981016,57308
20130210,441.43090492150293,56690
20130211,457.92080442880086,58526
20130212,460.71129692832767,58600
20130213,461.09257473481193,59109
20130214,460.17702312138726,49824
20130215,458.00185191844366,55618
20130216,458.98981077147016,52212
20130217,476.170372932392,49151
20130218,464.04324335022164,50528
20130219,465.03174308864703,53933
20130220,482.31671945324223,59990
20130221,447.9619471695435,56369
20130222,459.67270967741933,62000
20130223,458.5110213142332,57661
20130224,438.55507499610746,57803
20130225,455.4081311903209,67444
20130226,452.8087955942214,62645
20130227,461.98549958711806,60550
20130228,465.1879132732019,63971
20130301,465.11150558228616,64221
20130302,466.930174255398,56641
20130303,461.53740809339394,53451
20130304,462.5081533298672,63471
20130305,486.52885439155614,58362
20130306,482.9758587065929,63584
20130307,469.7843420971615,64964
20130308,460.62112853794844,55470
20130309,477.25035955894106,56319
20130310,460.90090472926664,72950
20130311,481.65029804144194,63414
20130312,489.68034725941794,44808
20130313,468.06507889148253,56977
20130314,483.75537291336974,58767
20130315,474.2184954633467,62491
20130316,502.9325788731126,33313
20130317,480.10458736353866,35358
20130318,465.82705166470004,43221
20130319,489.0244848693853,46396
20130320,476.5113988967419,46408
20130321,496.19047873572435,56127
20130322,495.21088673982393,59871
20130323,512.0674815138669,52607
20130324,482.48715248525696,52228
20130325,500.98803370673534,49723
20130326,485.2591330881124,47848
20130327,479.0425837584956,54293
20130328,525.0368366353783,60619
20130329,490.4787879768861,61781
20130330,559.4696685428393,59163
20130331,555.8845776143604,43787
20130401,523.2056979002867,54055
20130402,502.4927980773792,63247
20130403,510.52256235136286,65596
20130404,499.99785276554394,63803
20130405,489.3250862125057,61476
20130406,499.01221200815417,51998
20130407,530.7164500451184,63167
20130408,494.2741579106328,62909
20130409,474.2715096514393,68539
20130410,497.32807143302375,64172
20130411,513.5795208631778,65618
20130412,474.11101173070966,58138
20130413,452.56887731545606,54147
20130414,485.8447164481785,55228
20130415,489.61642129934813,54612
20130416,470.6495039317998,68035
20130417,491.71918846506384,56732
20130418,472.01028815103086,48308
20130419,484.44096780378965,57367
20130420,496.1254476555343,48028
20130421,486.0009732470237,44182
20130422,479.1944791927279,47964
20130423,476.8134000645786,61940
20130424,519.7657965319361,64128
20130425,481.34903122064605,62811
20130426,488.4420301753234,54813
20130427,491.39179929266135,45240
20130428,514.6781504769647,41827
20130429,502.5398449730803,52378
20130430,562.7015299026425,46735
20130501,464.48698071953885,55341
20130502,488.2085038533085,56445
20130503,493.54603292680537,51083
20130504,489.4522382173141,50710
20130505,487.82112750263434,49348
20130506,506.49784783945444,53667
20130507,505.81671623928617,56819
20130508,514.0766647571262,50623
20130509,474.7271244790723,66228
20130510,476.30129664165406,68099
20130511,467.68940265576566,73877
20130512,467.0118975693638,64551
20130513,483.3386315720121,60712
20130514,469.72488828443755,66911
20130515,491.85888918416157,63971
20130516,473.29839728023313,61770
20130517,473.6491653204093,59424
20130518,495.2496533947785,51211
20130519,463.1042807786298,47468
20130520,472.8332214969804,49179
20130521,474.8773694463175,53388
20130522,475.19500249683097,52066
20130523,474.2708881689951,59268
20130524,484.83241391743286,55470
20130525,505.150864570036,51702
20130526,510.764977879977,40009
20130527,489.3675506667671,53092
20130528,468.52417781371395,56891
20130529,487.0993615976428,54981
20130530,491.5252003101577,58035
20130531,477.0707422932819,53914
20130601,477.31995088554845,53752
20130602,485.576266453929,50140
20130603,487.0737451530475,55963
20130604,484.72194042078473,57369
20130605,473.08864618171685,57408
20130606,467.6476036678175,53874
20130607,480.09479336465625,52145
20130608,460.27093320052296,48189
20130609,477.6913993615929,44799
20130610,462.35502213831387,44493
20130611,453.7012332288905,49788
20130612,463.50241377810636,45986
20130613,463.1595127079905,43752
20130614,465.25646473230546,49422
20130615,465.0046462454442,35943
20130616,458.4024526718269,42892
20130617,451.9302014292191,46319
20130618,458.37524819445355,45831
20130619,462.5516094649328,46910
20130620,463.2911145234981,52749
20130621,470.9641908969267,47083
20130622,463.96992364033036,44919
20130623,456.71875899986907,38195
20130624,459.2515871203471,43790
20130625,449.6372039283651,45006
20130626,461.3860860445299,45767
20130627,459.91315136476425,45942
20130628,462.1165877731896,49645
20130629,490.72700165654334,36220
20130630,458.4427073280576,31086
20130701,455.16903601235293,39181
20130702,447.8074988796495,40166
20130703,443.3560541673749,35298
20130704,458.484422601598,34794
20130705,453.2578093361052,37039
20130706,477.3700122728769,33407
20130707,469.1543829898252,30664
20130708,451.9586280056577,39592
20130709,470.43385944672184,40739
20130710,474.5253135515448,39228
20130711,457.7585503392628,43624
20130712,476.3133518297252,49379
20130713,477.58271224886585,37032
20130714,477.7184090313946,34369
20130715,468.0903699673558,36760
20130716,462.0723816301116,39347
20130717,456.63556644213105,40825
20130718,457.75317058866653,40923
20130719,447.6212393173842,37327
20130720,458.9666756409106,33429
20130721,464.50194519621107,35472
20130722,454.1414166501093,40264
20130723,459.59548487485824,37917
20130724,467.5128373930217,42532
20130725,480.9055619793756,42377
20130726,463.36026350461134,37950
20130727,464.87728337236535,36295
20130728,469.7542258192915,37685
20130729,470.52629668175325,41317
20130730,466.1593650793651,42525
20130731,480.55634721525337,49825
20130801,470.7743122515644,50818
20130802,445.2383217160242,51934
20130803,466.079155147628,45215
20130804,470.965733456733,43220
20130805,450.67770599344004,50305
20130806,439.73403181709756,54499
20130807,436.74900130863006,58076
20130808,447.1365440178229,57454
20130809,439.857947085737,50270
20130810,456.75392078552085,51329
20130811,455.19076294705974,38194
20130812,576.033773659306,50720
20130813,478.14067197337823,52889
20130814,475.96384753173214,51919
20130815,477.4985973054411,57746
20130816,429.3905354534217,71192
20130817,435.31691861885975,57286
20130818,449.005687749739,55558
20130819,441.61177909675985,71941
20130820,454.4344391533549,62789
20130821,447.3654368548427,60741
20130822,428.3220534829977,66638
20130823,474.36950104399165,55556
20130824,462.462758674647,51126
20130825,484.9569371551608,44586
20130826,447.84843098259387,56819
20130827,479.8093440302029,61451
20130828,437.67494391583506,64635
20130829,426.5956967557573,59490
20130830,453.81157061714214,62676
20130831,460.8135980211835,47301
20130901,450.5917213594126,46167
20130902,445.27694090382386,51780
20130903,485.7860311704344,51844
20130904,452.5636065388314,53037
20130905,419.03026241768424,60438
20130906,446.70409565245836,61138
20130907,439.77284480281935,52211
20130908,441.66277034764386,46283
20130909,436.31705378128026,57864
20130910,451.73295218687497,52998
20130911,431.9267088349317,49010
20130912,465.19206664773264,52815
20130913,461.2202161991379,44311
20130914,448.18186614064865,43598
20130915,470.73789708341076,53830
20130916,479.27065316340463,52728
20130917,436.1992331448521,67027
20130918,447.5960995891699,60609
20130919,437.3491770548462,59603
20130920,442.5697317812908,59019
20130921,445.0819085335669,52522
20130922,449.18005577984513,51273
20130923,445.49819433559236,65073
20130924,446.683502168451,62487
20130925,448.3775790058616,55787
20130926,457.9277439932704,57061
20130927,475.49816425120775,46575
20130928,457.6473888954379,42415
20130929,468.10640278254056,40826
20130930,458.8480329679667,47076
20131001,457.21642326191517,57175
20131002,508.8880513051305,62216
20131003,482.4476249810571,59389
20131004,458.8256277823816,51889
20131005,474.77468877842784,45466
20131006,491.85776993287965,43057
20131007,499.0459728588525,44287
20131008,454.36022222708283,45719
20131009,472.61614854913825,50246
20131010,482.15083779461867,57532
20131011,447.98094851263005,51702
20131012,445.1293921257278,49122
20131013,522.6565832129047,51206
20131014,521.5339572750678,57484
20131015,446.81336723184074,55853
20131016,469.8000829613242,50626
20131017,466.1782296400226,47753
20131018,491.5230766634604,59259
20131019,515.0498651321705,55610
20131020,474.89547913052354,48995
20131021,476.08365012699414,60239
20131022,565.4995200438817,65631
20131023,534.5761701047746,55166
20131024,519.503022840997,63351
20131025,479.9212419670299,57264
20131026,478.15089203450873,47756
20131027,459.61190781636583,43652
20131028,464.82795929507176,51296
20131029,468.072668220854,50187
20131030,500.49223290929774,48345
20131031,491.1215826468404,57903
20131101,485.13154415653094,45384
20131102,544.2886390803428,39319
20131103,556.7228515074669,35490
20131104,517.1044998466459,45646
20131105,526.8891137191421,51891
20131106,547.2630641970868,55610
20131107,524.0569034537527,61701
20131108,519.3914932994035,60517
20131109,541.9973977695167,53800
20131110,509.70125207476366,55428
20131111,490.89712706606184,57537
20131112,487.91803419982074,58012
20131113,489.9836347320872,65749
20131114,476.24777504537735,68316
20131115,474.43288779808296,60302
20131116,482.2148870181657,47397
20131117,513.8868570080226,50856
20131118,517.2618432283763,84352
20131119,538.8070287133125,94242
20131120,489.59704811969266,74190
20131121,567.5920020248038,71118
20131122,501.3581096248564,75731
20131123,487.85283387711837,72639
20131124,505.5194905887593,60619
20131125,458.49534893480114,71489
20131126,486.9261803676402,85736
20131127,473.7916921907015,94682
20131128,453.17847982738266,98252
20131129,483.2140466386277,90826
20131130,468.67717568906863,74666
20131201,507.88848971147394,71536
20131202,488.7113685091251,76492
20131203,474.4316057002814,77119
20131204,498.8911964163504,80365
20131205,486.8672110947353,82778
20131206,493.064181963065,71531
20131207,473.63380260751927,67267
20131208,484.8590652004794,47561
20131209,479.0333706748292,63379
20131210,543.1921292217328,68100
20131211,484.42272309107636,65220
20131212,472.4926481889441,58557
20131213,521.4159646616417,60897
20131214,673.3620076857849,55427
20131215,547.4652886562488,52346
20131216,491.90831583908147,70023
20131217,500.514087121831,67331
20131218,498.75848781632476,80969
20131219,477.812422007941,70520
20131220,506.69074505676264,66505
20131221,490.4120045463566,55429
20131222,525.1199206563186,51926
20131223,524.6610677975518,53999
20131224,507.6695794936977,56646
20131225,513.6820270544596,54187
20131226,582.9879715053136,51378
20131227,512.387956583294,52975
20131228,599.0810109771534,48191
20131229,559.6676644914087,50109
20131230,519.4397562370434,55956
20131231,539.5723697305043,50242
20140101,500.03981760060174,42544
20140102,529.2256860115272,55174
20140103,516.0119090640297,60878
20140104,503.17764177106244,52285
20140105,550.1895914579111,58721
20140106,555.267296942523,67801
20140107,493.1995023209073,62691
20140108,495.9327045670012,61178
20140109,495.6441560644614,58950
20140110,512.193966605359,55458
20140111,521.5240912317746,54937
20140112,517.7405915872984,49663
20140113,527.3059814137887,54987
20140114,498.3314561403509,57000
20140115,481.66518484620667,61186
20140116,516.5051738190581,56438
20140117,490.44339910496336,58992
20140118,485.6766003771311,51441
20140119,504.81769141048073,48012
20140120,573.2179356117201,63583
20140121,509.83086176214977,72491
20140122,493.61919504643964,65246
20140123,516.872361968043,63210
20140124,485.83098463220557,65852
20140125,506.99716565973,53628
20140126,508.0853988752343,52811
20140127,516.0956882079823,66121
20140128,495.9238183700816,65672
20140129,491.45419630631534,59886
20140130,503.5938991695547,61172
20140131,508.6186610864539,59257
20140201,527.0212303156684,55628
20140202,557.7410728087804,51752
20140203,575.4393679548444,60059
20140204,541.9140058215991,67679
20140205,547.0354213328982,67417
20140206,542.299614821553,70357
20140207,550.3564016759933,71122
20140208,521.5115239667363,64214
20140209,501.2275657689508,57702
20140210,500.1028800362839,66145
20140211,476.59626165444837,67249
20140212,719.1361971146052,61690
20140213,580.4438438788444,68639
20140214,570.3224420758719,74494
20140215,540.7734762333306,61115
20140216,494.97615688733305,57417
20140217,552.1571958407842,60396
20140218,573.8369647108459,66366
20140219,574.604678045439,70072
20140220,565.9535750974514,71061
20140221,556.9965589917846,69747
20140222,567.5155622489959,57768
20140223,589.4240052076378,59912
20140224,584.5747790297551,74105
20140225,573.2052965394458,80883
20140226,580.2977821220591,72637
20140227,547.6760629053452,70773
20140228,614.3037377252426,70979
20140301,591.2333718170739,62364
20140302,590.8063605471813,57385
20140303,614.4190042247986,81424
20140304,628.4162773921167,84559
20140305,609.0310456381989,72023
20140306,591.3984511187952,69986
20140307,572.2585432776253,72162
20140308,553.8812146609765,64907
20140309,567.737264128295,62481
20140310,589.7281043560844,71601
20140311,554.0012668643149,76567
20140312,571.5703884455583,75815
20140313,567.4274992783604,72751
20140314,575.2032376684191,69618
20140315,504.4575669202822,61379
20140316,487.03257482609354,59371
20140317,511.2883709805211,66893
20140318,469.38322587816805,53976
20140319,484.6271967380224,73575
20140320,542.9009941594898,70713
20140321,597.1354695258362,73308
20140322,618.1169533684968,66736
20140323,531.6759769818775,58215
20140324,576.4888142695194,69687
20140325,534.2258104790045,72087
20140326,566.8999825373264,68718
20140327,578.1760228487816,71076
20140328,569.1341659711459,67096
20140329,567.5262195926213,53071
20140330,578.2570546659886,57019
20140331,576.6324673531082,65167
20140401,585.3886541471048,63900
20140402,574.1330611032741,67345
20140403,532.8571258500871,67199
20140404,593.0901430146337,66217
20140405,584.2054764552531,54853
20140406,638.4593953645948,50179
20140407,558.8069266970256,65659
20140408,587.4191290143804,68566
20140409,595.6403690424677,64708
20140410,588.1653963854726,69276
20140411,568.0288225991503,64498
20140412,568.1627800066867,47856
20140413,596.2781662025045,51347
20140414,594.5104478884043,70397
20140415,623.9290952219586,73775
20140416,621.7890943324066,67983
20140417,572.9101357452214,65343
20140418,566.039338098363,56383
20140419,574.5160752738508,53405
20140420,616.3506319883326,49368
20140421,558.3280258451598,60669
20140422,568.7463136640187,75278
20140423,545.4633301732764,75948
20140424,581.1345195333166,71826
20140425,567.375340495845,72321
20140426,561.9761135092236,51661
20140427,603.9141482084999,52777
20140428,562.1149005905817,64682
20140429,595.4514999380191,64536
20140430,583.59664049548,63938
20140501,565.7471187573075,59870
20140502,568.519218693195,60514
20140503,531.1988766536102,54124
20140504,588.8877572508854,52235
20140505,553.2405124450952,68300
20140506,551.0358714266895,75910
20140507,556.215126385683,70182
20140508,562.4236640666986,68847
20140509,554.7111198274172,66287
20140510,540.0107873328942,56177
20140511,622.457514313847,54842
20140512,567.9196342769282,72842
20140513,539.9741534907226,69255
20140514,566.0160930072733,69844
20140515,564.3314341636056,74594
20140516,580.551207212714,65440
20140517,615.1929694038873,53765
20140518,635.4935252955843,49732
20140519,628.0954107964849,64521
20140520,618.0583720573254,71661
20140521,598.783618899273,69336
20140522,579.6038145427736,73246
20140523,567.2432903065314,72358
20140524,562.000809731847,53104
20140525,614.7788515113525,57432
20140526,595.6870168983577,67403
20140527,589.3658412532334,68814
20140528,581.1207896343155,72084
20140529,585.8797012207356,64797
20140530,563.7936167934026,65359
20140531,586.0859204113742,52118
20140601,651.2083957479832,55409
20140602,597.7370488469892,64917
20140603,597.2986017727267,69159
20140604,571.4982554833157,65061
20140605,595.9114130113064,67572
20140606,609.4841801404408,61663
20140607,557.2579109003266,51448
20140608,650.5261575837434,48571
20140609,596.9644780061631,59062
20140610,625.4127163864242,64468
20140611,584.810857532552,63053
20140612,613.0284431837664,64163
20140613,581.4507103016856,64902
20140614,585.8363273453094,53607
20140615,602.0797789610438,54651
20140616,594.9620776866511,68403
20140617,563.3788888728927,69461
20140618,578.4862307848687,63947
20140619,605.0075911987033,62309
20140620,580.4465230471317,57838
20140621,608.8429450739013,51014
20140622,634.2535995733839,50631
20140623,596.7436703043268,59837
20140624,585.4168851924837,64447
20140625,591.798340974256,65219
20140626,573.445970042796,61688
20140627,575.0111641221374,62880
20140628,597.0030919866014,54334
20140629,625.4106872331635,50827
20140630,614.3674989873272,69124
20140701,628.3843554178694,71015
20140702,598.9954273271638,64295
20140703,589.6524199719423,62728
20140704,549.7696492435817,59557
20140705,558.0854154912549,49628
20140706,634.4344740516863,52277
20140707,588.9965673128496,65255
20140708,607.7001644384071,69935
20140709,621.2783462654044,67919
20140710,585.6208474392864,64689
20140711,619.7994144228003,59087
20140712,566.2202249710377,53518
20140713,648.919070712492,52169
20140714,565.86389297405,63237
20140715,568.7375695991092,71840
20140716,569.4787495077398,66022
20140717,587.9041930654893,66133
20140718,602.4080360507473,63688
20140719,568.8675832857094,59494
20140720,637.1512143611404,52085
20140721,589.244033422069,64987
20140722,578.1135367903013,66648
20140723,567.2138874657184,66362
20140724,581.7014430253773,66319
20140725,611.8458097468931,61476
20140726,544.9082632930857,57229
20140727,642.1567329346898,51508
20140728,589.0455182290856,64238
20140729,588.0726468529243,62852
20140730,597.812127418911,65422
20140731,584.6835008580534,69343
20140801,561.4409839434056,68134
20140802,564.2917240629305,55172
20140803,570.071514791361,53849
20140804,568.6022330154593,67532
20140805,598.0385092836071,74917
20140806,588.5833311913635,77810
20140807,570.7245037062281,70422
20140808,584.2885904063388,67899
20140809,573.9002565536296,60806
20140810,631.3305350250117,57773
20140811,594.994191047067,75573
20140812,583.1085128710049,77189
20140813,601.6363047301676,75621
20140814,587.3832113592293,79935
20140815,640.6923139114967,74212
20140816,662.1617498377824,66269
20140817,599.2974558056616,60019
20140818,572.6884202696932,72601
20140819,553.4580291970802,75076
20140820,555.7445734271445,73481
20140821,567.8106294585508,73174
20140822,581.7963757463023,66662
20140823,549.5257764082678,57766
20140824,623.5779552828326,56712
20140825,570.0449404421029,69848
20140826,583.3478874397194,72992
20140827,576.1971514343793,74283
20140828,565.8779514466246,69161
20140829,523.7928756609494,68273
20140830,563.2518144370341,61176
20140831,584.0383495563786,58045
20140901,572.3999943511601,70811
20140902,577.5269155315626,71873
20140903,553.5024310282555,71986
20140904,557.518825024714,70810
20140905,581.4118249820679,68313
20140906,551.8165448188175,62920
20140907,648.235435286329,60420
20140908,565.7299415723303,76676
20140909,630.1923893980189,80966
20140910,778.5905389379365,37945
20140911,0,0
20140912,0,0
20140913,227.0,1
20140914,0,0
20140915,0,0
20140916,0,0
20140917,0,0
20140918,0,0
20140919,0,0
20140920,0,0
20140921,0,0
20140922,259.0,1
20140923,0,0
20140924,0,0
20140925,0,0
20140926,0,0
20140927,0,0
20140928,0,0
20140929,0,0
20140930,0,0
20141001,0,0
20141002,0,0
20141003,0,0
20141004,0,0
20141005,0,0
20141006,0,0
20141007,0,0
20141008,0,0
20141009,0,0
20141010,0,0
20141011,0,0
20141012,0,0
20141013,0,0
20141014,0,0
20141015,0,0
20141016,0,0
20141017,0,0
20141018,0,0
20141019,0,0
20141020,0,0
20141021,0,0
20141022,0,0
20141023,0,0
20141024,0,0
20141025,0,0
20141026,0,0
20141027,0,0
20141028,0,0
20141029,0,0
20141030,0,0
20141031,269.0360824742268,194
20141101,0,0
20141102,0,0
20141103,0,0
20141104,0,0
20141105,0,0
20141106,0,0
20141107,0,0
20141108,0,0
20141109,0,0
20141110,0,0
20141111,0,0
20141112,0,0
20141113,0,0
20141114,0,0
20141115,0,0
20141116,0,0
20141117,0,0
20141118,0,0
20141119,0,0
20141120,0,0
20141121,0,0
20141122,0,0
20141123,0,0
20141124,0,0
20141125,0,0
20141126,0,0
20141127,0,0
20141128,0,0
20141129,0,0
20141130,0,0
20141201,0,0
20141202,0,0
20141203,0,0
20141204,0,0
20141205,0,0
20141206,0,0
20141207,0,0
20141208,0,0
20141209,0,0
20141210,0,0
20141211,0,0
20141212,0,0
20141213,0,0
20141214,0,0
20141215,0,0
20141216,0,0
20141217,0,0
20141218,0,0
20141219,0,0
20141220,0,0
20141221,0,0
20141222,0,0
20141223,0,0
20141224,0,0
20141225,0,0
20141226,0,0
20141227,0,0
20141228,0,0
20141229,0,0
20141230,0,0
20141231,0,0
